{
  "project_info": {
    "project_number": "1001919484743",
    "firebase_url": "https://heaven-6d998.firebaseio.com",
    "project_id": "heaven-6d998",
    "storage_bucket": "heaven-6d998.appspot.com"
  },
  "client": [
    {
      "client_info": {
        "mobilesdk_app_id": "1:1001919484743:android:ee38dcdf125bd2b4",
        "android_client_info": {
          "package_name": "com.app.wallet1"
        }
      },
      "oauth_client": [
        {
          "client_id": "1001919484743-2fe39nnhclporcap9f5qosjbqkpt2cpu.apps.googleusercontent.com",
          "client_type": 3
        }
      ],
      "api_key": [
        {
          "current_key": "AIzaSyAXC9cgNIkSLzTio6Ge0COfCEwG0oiYWVU"
        }
      ],
      "services": {
        "appinvite_service": {
          "other_platform_oauth_client": [
            {
              "client_id": "1001919484743-2fe39nnhclporcap9f5qosjbqkpt2cpu.apps.googleusercontent.com",
              "client_type": 3
            },
            {
              "client_id": "1001919484743-8f9ooa159q5c15ct7d1cj5ot2860nuec.apps.googleusercontent.com",
              "client_type": 2,
              "ios_info": {
                "bundle_id": "com.app.wallet1"
              }
            }
          ]
        }
      }
    },
    {
      "client_info": {
        "mobilesdk_app_id": "1:1001919484743:android:9b242d5104bded4b36b262",
        "android_client_info": {
          "package_name": "com.app.wallet2"
        }
      },
      "oauth_client": [
        {
          "client_id": "1001919484743-2fe39nnhclporcap9f5qosjbqkpt2cpu.apps.googleusercontent.com",
          "client_type": 3
        }
      ],
      "api_key": [
        {
          "current_key": "AIzaSyAXC9cgNIkSLzTio6Ge0COfCEwG0oiYWVU"
        }
      ],
      "services": {
        "appinvite_service": {
          "other_platform_oauth_client": [
            {
              "client_id": "1001919484743-2fe39nnhclporcap9f5qosjbqkpt2cpu.apps.googleusercontent.com",
              "client_type": 3
            },
            {
              "client_id": "1001919484743-8f9ooa159q5c15ct7d1cj5ot2860nuec.apps.googleusercontent.com",
              "client_type": 2,
              "ios_info": {
                "bundle_id": "com.app.wallet1"
              }
            }
          ]
        }
      }
    },
    {
      "client_info": {
        "mobilesdk_app_id": "1:1001919484743:android:e7d875ebd1f1a9d7",
        "android_client_info": {
          "package_name": "com.app.wallet3"
        }
      },
      "oauth_client": [
        {
          "client_id": "1001919484743-2fe39nnhclporcap9f5qosjbqkpt2cpu.apps.googleusercontent.com",
          "client_type": 3
        }
      ],
      "api_key": [
        {
          "current_key": "AIzaSyAXC9cgNIkSLzTio6Ge0COfCEwG0oiYWVU"
        }
      ],
      "services": {
        "appinvite_service": {
          "other_platform_oauth_client": [
            {
              "client_id": "1001919484743-2fe39nnhclporcap9f5qosjbqkpt2cpu.apps.googleusercontent.com",
              "client_type": 3
            },
            {
              "client_id": "1001919484743-8f9ooa159q5c15ct7d1cj5ot2860nuec.apps.googleusercontent.com",
              "client_type": 2,
              "ios_info": {
                "bundle_id": "com.app.wallet1"
              }
            }
          ]
        }
      }
    },
    {
      "client_info": {
        "mobilesdk_app_id": "1:1001919484743:android:ac7b76cd15661c49",
        "android_client_info": {
          "package_name": "com.ionicframework.app403798"
        }
      },
      "oauth_client": [
        {
          "client_id": "1001919484743-2fe39nnhclporcap9f5qosjbqkpt2cpu.apps.googleusercontent.com",
          "client_type": 3
        }
      ],
      "api_key": [
        {
          "current_key": "AIzaSyAXC9cgNIkSLzTio6Ge0COfCEwG0oiYWVU"
        }
      ],
      "services": {
        "appinvite_service": {
          "other_platform_oauth_client": [
            {
              "client_id": "1001919484743-2fe39nnhclporcap9f5qosjbqkpt2cpu.apps.googleusercontent.com",
              "client_type": 3
            },
            {
              "client_id": "1001919484743-8f9ooa159q5c15ct7d1cj5ot2860nuec.apps.googleusercontent.com",
              "client_type": 2,
              "ios_info": {
                "bundle_id": "com.app.wallet1"
              }
            }
          ]
        }
      }
    }
  ],
  "configuration_version": "1"
}