<?xml version="1.0" encoding="iso-8859-1"?>
<!-- Generator: Adobe Illustrator 19.0.0, SVG Export Plug-In . SVG Version: 6.00 Build 0)  -->
<svg xmlns="http://www.w3.org/2000/svg" xmlns:xlink="http://www.w3.org/1999/xlink" version="1.1" id="Capa_1" x="0px" y="0px" viewBox="0 0 508 508" style="enable-background:new 0 0 508 508;" xml:space="preserve" width="512px" height="512px">
<g>
	<g>
		<path d="M81.9,426.1V0H16.4v32.8H0v16.4h16.4v81.9H0v16.4h16.4v81.9H0v16.4h16.4v81.9H0v16.4h16.4V426H0v16.4h16.4v49.2h41V508    h16.4v-16.4h81.9V508h16.4v-16.4H254V508h16.4v-16.4h81.9V508h16.4v-16.4h81.9V508H467v-16.4h41v-65.5H81.9z M491.7,475.2h-0.1    H32.8V16.4h32.8v426.1h426.1V475.2z" fill="#3d6889"/>
	</g>
</g>
<g>
	<g>
		<path d="M114.8,295v114.7h65.5V295H114.8z M163.9,393.3h-32.8v-81.9h32.8V393.3z" fill="#3d6889"/>
	</g>
</g>
<g>
	<g>
		<path d="M213,409.7h65.5V229.4H213V409.7z M229.4,245.8h32.8v147.5h-32.8V245.8z" fill="#3d6889"/>
	</g>
</g>
<g>
	<g>
		<path d="M311.4,163.9v245.8h65.5V163.9H311.4z M360.5,393.3h-32.8v-213h32.8V393.3z" fill="#3d6889"/>
	</g>
</g>
<g>
	<g>
		<path d="M409.7,98.3v311.4h65.5V98.3H409.7z M458.8,393.3H426V114.7h32.8V393.3z" fill="#3d6889"/>
	</g>
</g>
<g>
</g>
<g>
</g>
<g>
</g>
<g>
</g>
<g>
</g>
<g>
</g>
<g>
</g>
<g>
</g>
<g>
</g>
<g>
</g>
<g>
</g>
<g>
</g>
<g>
</g>
<g>
</g>
<g>
</g>
</svg>
